mc20_13TeV:mc20_13TeV.410644.PowhegPythia8EvtGen_A14_singletop_schan_lept_top.deriv.DAOD_PHYSLITE.e6527_s3681_r13144_r13146_p5855
mc20_13TeV:mc20_13TeV.410644.PowhegPythia8EvtGen_A14_singletop_schan_lept_top.deriv.DAOD_PHYSLITE.e6527_s3681_r13145_r13146_p5855
mc20_13TeV:mc20_13TeV.410644.PowhegPythia8EvtGen_A14_singletop_schan_lept_top.deriv.DAOD_PHYSLITE.e6527_s3681_r13167_r13146_p5855
mc20_13TeV:mc20_13TeV.410645.PowhegPythia8EvtGen_A14_singletop_schan_lept_antitop.deriv.DAOD_PHYSLITE.e6527_s3681_r13144_r13146_p5855
mc20_13TeV:mc20_13TeV.410645.PowhegPythia8EvtGen_A14_singletop_schan_lept_antitop.deriv.DAOD_PHYSLITE.e6527_s3681_r13145_r13146_p5855
mc20_13TeV:mc20_13TeV.410645.PowhegPythia8EvtGen_A14_singletop_schan_lept_antitop.deriv.DAOD_PHYSLITE.e6527_s3681_r13167_r13146_p5855
mc20_13TeV:mc20_13TeV.410648.PowhegPythia8EvtGen_A14_Wt_DR_dilepton_top.deriv.DAOD_PHYSLITE.e6615_s3681_r13144_r13146_p5855
mc20_13TeV:mc20_13TeV.410648.PowhegPythia8EvtGen_A14_Wt_DR_dilepton_top.deriv.DAOD_PHYSLITE.e6615_s3681_r13145_r13146_p5855
mc20_13TeV:mc20_13TeV.410648.PowhegPythia8EvtGen_A14_Wt_DR_dilepton_top.deriv.DAOD_PHYSLITE.e6615_s3681_r13167_r13146_p5855
mc20_13TeV:mc20_13TeV.410649.PowhegPythia8EvtGen_A14_Wt_DR_dilepton_antitop.deriv.DAOD_PHYSLITE.e6615_s3681_r13144_r13146_p5855
mc20_13TeV:mc20_13TeV.410649.PowhegPythia8EvtGen_A14_Wt_DR_dilepton_antitop.deriv.DAOD_PHYSLITE.e6615_s3681_r13145_r13146_p5855
mc20_13TeV:mc20_13TeV.410649.PowhegPythia8EvtGen_A14_Wt_DR_dilepton_antitop.deriv.DAOD_PHYSLITE.e6615_s3681_r13167_r13146_p5855
mc20_13TeV:mc20_13TeV.410658.PhPy8EG_A14_tchan_BW50_lept_top.deriv.DAOD_PHYSLITE.e6671_s3681_r13144_r13146_p5855
mc20_13TeV:mc20_13TeV.410658.PhPy8EG_A14_tchan_BW50_lept_top.deriv.DAOD_PHYSLITE.e6671_s3681_r13145_r13146_p5855
mc20_13TeV:mc20_13TeV.410658.PhPy8EG_A14_tchan_BW50_lept_top.deriv.DAOD_PHYSLITE.e6671_s3681_r13167_r13146_p5855
mc20_13TeV:mc20_13TeV.410659.PhPy8EG_A14_tchan_BW50_lept_antitop.deriv.DAOD_PHYSLITE.e6671_s3681_r13144_r13146_p5855
mc20_13TeV:mc20_13TeV.410659.PhPy8EG_A14_tchan_BW50_lept_antitop.deriv.DAOD_PHYSLITE.e6671_s3681_r13145_r13146_p5855
mc20_13TeV:mc20_13TeV.410659.PhPy8EG_A14_tchan_BW50_lept_antitop.deriv.DAOD_PHYSLITE.e6671_s3681_r13167_r13146_p5855
